…
Visualization design
====================

**Objective**: Remake at least one figure or create a new one, in light of something you learned in the recent class meetings about visualization design and color. Maybe juxtapose your first attempt and what you obtained after some time spent working on it. Reflect on the differences.

\*Process\*\*: working...

``` r
singer_forcats %>% 
  group_by(year) %>% 
  summarise(mean_duration = mean(duration),
            mean_hotness = mean(artist_hotttnesss))
```

    ## # A tibble: 70 x 3
    ##      year mean_duration mean_hotness
    ##    <fctr>         <dbl>        <dbl>
    ##  1   2007      254.8794    0.4177400
    ##  2   2004      239.3157    0.4171090
    ##  3   1998      260.0710    0.4095104
    ##  4   1995      243.3836    0.4068184
    ##  5   1968      186.0353    0.4303272
    ##  6   2006      246.5558    0.4083919
    ##  7   2003      243.3904    0.4201097
    ##  8   1966      169.1816    0.4237375
    ##  9   1989      257.2638    0.4119238
    ## 10   2008      258.8586    0.4253368
    ## # ... with 60 more rows
…
