…
Work with a nested data frame
=============================

**Objective**: Create a nested data frame and map a function over the list column holding the nested data. Try to extract parameters from the models and go back to a simple data frame with summarized results.

**Process**: First, I will "nest" the data in gapminder by continent and country, using `nest()`...

``` r
gap_nested <- gapminder %>% 
  group_by(continent, country) %>% 
  nest()
gap_nested
```

    ## # A tibble: 142 x 3
    ##    continent     country              data
    ##       <fctr>      <fctr>            <list>
    ##  1      Asia Afghanistan <tibble [12 x 4]>
    ##  2    Europe     Albania <tibble [12 x 4]>
    ##  3    Africa     Algeria <tibble [12 x 4]>
    ##  4    Africa      Angola <tibble [12 x 4]>
    ##  5  Americas   Argentina <tibble [12 x 4]>
    ##  6   Oceania   Australia <tibble [12 x 4]>
    ##  7    Europe     Austria <tibble [12 x 4]>
    ##  8      Asia     Bahrain <tibble [12 x 4]>
    ##  9      Asia  Bangladesh <tibble [12 x 4]>
    ## 10    Europe     Belgium <tibble [12 x 4]>
    ## # ... with 132 more rows
…
Now, I can start applying **my** function `fit_all_models` over the nested dataframe. Let's do it for all countries applying `purrr:map()`. Following the recommendation in the [split-apply-combine](http://stat545.com/block024_group-nest-split-map.html) lesson, we can use mutate to create a new column in the same dataframe for the output of this function...

``` r
(gap_nested <- gap_nested %>% 
  mutate(model_fits = map(data, fit_all_models)))
```

    ## # A tibble: 142 x 4
    ##    continent     country              data       model_fits
    ##       <fctr>      <fctr>            <list>           <list>
    ##  1      Asia Afghanistan <tibble [12 x 4]> <tibble [3 x 4]>
    ##  2    Europe     Albania <tibble [12 x 4]> <tibble [3 x 4]>
    ##  3    Africa     Algeria <tibble [12 x 4]> <tibble [3 x 4]>
    ##  4    Africa      Angola <tibble [12 x 4]> <tibble [3 x 4]>
    ##  5  Americas   Argentina <tibble [12 x 4]> <tibble [3 x 4]>
    ##  6   Oceania   Australia <tibble [12 x 4]> <tibble [3 x 4]>
    ##  7    Europe     Austria <tibble [12 x 4]> <tibble [3 x 4]>
    ##  8      Asia     Bahrain <tibble [12 x 4]> <tibble [3 x 4]>
    ##  9      Asia  Bangladesh <tibble [12 x 4]> <tibble [3 x 4]>
    ## 10    Europe     Belgium <tibble [12 x 4]> <tibble [3 x 4]>
    ## # ... with 132 more rows
…
